waveform.vcd
$version Generated by VerilatedVcd $end
$date Mon May 22 16:28:20 2023 $end
$timescale 1s $end

 $scope module TOP $end
  $var wire  1 r! clk $end
  $var wire  1 t! finish $end
  $var wire  1 s! rst $end
  $scope module hw3_tb $end
   $var wire 32 )" DWIDTH [31:0] $end
   $var wire  1 r! clk $end
   $var wire 32 @! cycle_count [31:0] $end
   $var wire 32 +" cycle_for_ans [31:0] $end
   $var wire  1 >! finish $end
   $var wire 32 a! golden_dmem[0] [31:0] $end
   $var wire 32 k! golden_dmem[10] [31:0] $end
   $var wire 32 l! golden_dmem[11] [31:0] $end
   $var wire 32 m! golden_dmem[12] [31:0] $end
   $var wire 32 n! golden_dmem[13] [31:0] $end
   $var wire 32 o! golden_dmem[14] [31:0] $end
   $var wire 32 p! golden_dmem[15] [31:0] $end
   $var wire 32 b! golden_dmem[1] [31:0] $end
   $var wire 32 c! golden_dmem[2] [31:0] $end
   $var wire 32 d! golden_dmem[3] [31:0] $end
   $var wire 32 e! golden_dmem[4] [31:0] $end
   $var wire 32 f! golden_dmem[5] [31:0] $end
   $var wire 32 g! golden_dmem[6] [31:0] $end
   $var wire 32 h! golden_dmem[7] [31:0] $end
   $var wire 32 i! golden_dmem[8] [31:0] $end
   $var wire 32 j! golden_dmem[9] [31:0] $end
   $var wire 32 A! golden_reg[0] [31:0] $end
   $var wire 32 K! golden_reg[10] [31:0] $end
   $var wire 32 L! golden_reg[11] [31:0] $end
   $var wire 32 M! golden_reg[12] [31:0] $end
   $var wire 32 N! golden_reg[13] [31:0] $end
   $var wire 32 O! golden_reg[14] [31:0] $end
   $var wire 32 P! golden_reg[15] [31:0] $end
   $var wire 32 Q! golden_reg[16] [31:0] $end
   $var wire 32 R! golden_reg[17] [31:0] $end
   $var wire 32 S! golden_reg[18] [31:0] $end
   $var wire 32 T! golden_reg[19] [31:0] $end
   $var wire 32 B! golden_reg[1] [31:0] $end
   $var wire 32 U! golden_reg[20] [31:0] $end
   $var wire 32 V! golden_reg[21] [31:0] $end
   $var wire 32 W! golden_reg[22] [31:0] $end
   $var wire 32 X! golden_reg[23] [31:0] $end
   $var wire 32 Y! golden_reg[24] [31:0] $end
   $var wire 32 Z! golden_reg[25] [31:0] $end
   $var wire 32 [! golden_reg[26] [31:0] $end
   $var wire 32 \! golden_reg[27] [31:0] $end
   $var wire 32 ]! golden_reg[28] [31:0] $end
   $var wire 32 ^! golden_reg[29] [31:0] $end
   $var wire 32 C! golden_reg[2] [31:0] $end
   $var wire 32 _! golden_reg[30] [31:0] $end
   $var wire 32 `! golden_reg[31] [31:0] $end
   $var wire 32 D! golden_reg[3] [31:0] $end
   $var wire 32 E! golden_reg[4] [31:0] $end
   $var wire 32 F! golden_reg[5] [31:0] $end
   $var wire 32 G! golden_reg[6] [31:0] $end
   $var wire 32 H! golden_reg[7] [31:0] $end
   $var wire 32 I! golden_reg[8] [31:0] $end
   $var wire 32 J! golden_reg[9] [31:0] $end
   $var wire 32 ?! i [31:0] $end
   $var wire  1 s! rst $end
   $var wire  1 q! start $end
   $var wire 32 *" tmp [31:0] $end
   $scope module core_top_inst $end
    $var wire 32 )" DWIDTH [31:0] $end
    $var wire  3 -" J_TYPE_BEQ [2:0] $end
    $var wire  3 0" J_TYPE_J [2:0] $end
    $var wire  3 ." J_TYPE_JAL [2:0] $end
    $var wire  3 /" J_TYPE_JR [2:0] $end
    $var wire  3 ," J_TYPE_NOP [2:0] $end
    $var wire 32 H alu_out [31:0] $end
    $var wire 32 F alu_rs1 [31:0] $end
    $var wire 32 G alu_rs2 [31:0] $end
    $var wire  1 B branch $end
    $var wire  1 r! clk $end
    $var wire 32 v! dmem_out [31:0] $end
    $var wire 32 P ex_imm [31:0] $end
    $var wire 32 N ex_jump_addr [31:0] $end
    $var wire  4 X ex_jump_type [3:0] $end
    $var wire  4 O ex_op [3:0] $end
    $var wire 32 M ex_pc [31:0] $end
    $var wire 32 Q ex_ra [31:0] $end
    $var wire  5 S ex_rdst_id [4:0] $end
    $var wire 32 F ex_rs1 [31:0] $end
    $var wire 32 R ex_rs2 [31:0] $end
    $var wire  1 W ex_ssel $end
    $var wire  2 V ex_wbsel [1:0] $end
    $var wire  1 U ex_we_dmem $end
    $var wire  1 T ex_we_reg $end
    $var wire  1 1" exmem_flush $end
    $var wire  1 f idex_flush $end
    $var wire  1 e ifid_flush $end
    $var wire  1 c ifid_write $end
    $var wire 32 > imm [31:0] $end
    $var wire 32 6 instr [31:0] $end
    $var wire 26 = jump_addr [25:0] $end
    $var wire  3 < jump_type [2:0] $end
    $var wire 32 Y mem_pc [31:0] $end
    $var wire 32 Z mem_rd [31:0] $end
    $var wire  5 \ mem_rdst_id [4:0] $end
    $var wire  1 C mem_read $end
    $var wire 32 [ mem_rs2 [31:0] $end
    $var wire  2 _ mem_wbsel [1:0] $end
    $var wire  1 ^ mem_we_dmem $end
    $var wire  1 ] mem_we_reg $end
    $var wire  4 7 op [3:0] $end
    $var wire 32 L out [31:0] $end
    $var wire  1 J overflow $end
    $var wire 32 4 pc [31:0] $end
    $var wire 32 5 pc_increment [31:0] $end
    $var wire  1 d pc_write $end
    $var wire 32 u! rd [31:0] $end
    $var wire 32 K rdata [31:0] $end
    $var wire  5 A rdst_id [4:0] $end
    $var wire  5 ? rs1_id [4:0] $end
    $var wire 32 D rs1_out [31:0] $end
    $var wire  5 @ rs2_id [4:0] $end
    $var wire 32 E rs2_out [31:0] $end
    $var wire  1 s! rst $end
    $var wire  1 8 ssel $end
    $var wire 32 ` wb_rdata [31:0] $end
    $var wire  5 a wb_rdst_id [4:0] $end
    $var wire  1 b wb_we_reg $end
    $var wire  2 9 wbsel [1:0] $end
    $var wire  1 ; we_dmem $end
    $var wire  1 : we_regfile $end
    $var wire  1 I zero $end
    $scope module alu_inst $end
     $var wire 32 )" DWIDTH [31:0] $end
     $var wire  4 4" OP_ADD [3:0] $end
     $var wire  4 2" OP_AND [3:0] $end
     $var wire  4 ;" OP_LUI [3:0] $end
     $var wire  4 6" OP_NOR [3:0] $end
     $var wire  4 3" OP_OR [3:0] $end
     $var wire  4 8" OP_SLL [3:0] $end
     $var wire  4 7" OP_SLT [3:0] $end
     $var wire  4 :" OP_SRA [3:0] $end
     $var wire  4 9" OP_SRL [3:0] $end
     $var wire  4 5" OP_SUB [3:0] $end
     $var wire  4 O op [3:0] $end
     $var wire  1 J overflow $end
     $var wire 32 H rd [31:0] $end
     $var wire 33 g result [32:0] $end
     $var wire 32 F rs1 [31:0] $end
     $var wire 32 G rs2 [31:0] $end
     $var wire  1 I zero $end
    $upscope $end
    $scope module decode_inst $end
     $var wire  4 4" ALU_OP_ADD [3:0] $end
     $var wire  4 2" ALU_OP_AND [3:0] $end
     $var wire  4 J" ALU_OP_NOP [3:0] $end
     $var wire  4 6" ALU_OP_NOR [3:0] $end
     $var wire  4 3" ALU_OP_OR [3:0] $end
     $var wire  4 7" ALU_OP_SLT [3:0] $end
     $var wire  4 5" ALU_OP_SUB [3:0] $end
     $var wire 32 )" DWIDTH [31:0] $end
     $var wire  6 D" FUNCT_ADD [5:0] $end
     $var wire  6 F" FUNCT_AND [5:0] $end
     $var wire  6 =" FUNCT_JR [5:0] $end
     $var wire  6 H" FUNCT_NOR [5:0] $end
     $var wire  6 G" FUNCT_OR [5:0] $end
     $var wire  6 I" FUNCT_SLT [5:0] $end
     $var wire  6 E" FUNCT_SUB [5:0] $end
     $var wire  3 -" J_TYPE_BEQ [2:0] $end
     $var wire  3 0" J_TYPE_J [2:0] $end
     $var wire  3 ." J_TYPE_JAL [2:0] $end
     $var wire  3 /" J_TYPE_JR [2:0] $end
     $var wire  3 ," J_TYPE_NOP [2:0] $end
     $var wire  6 =" OP_ADDI [5:0] $end
     $var wire  6 A" OP_BEQ [5:0] $end
     $var wire  6 C" OP_J [5:0] $end
     $var wire  6 B" OP_JAL [5:0] $end
     $var wire  6 ?" OP_LW [5:0] $end
     $var wire  6 <" OP_R_TYPE [5:0] $end
     $var wire  6 >" OP_SLTI [5:0] $end
     $var wire  6 @" OP_SW [5:0] $end
     $var wire 26 = address [25:0] $end
     $var wire  6 l funct [5:0] $end
     $var wire 32 > imm [31:0] $end
     $var wire 16 m immediate [15:0] $end
     $var wire 32 6 instr [31:0] $end
     $var wire  1 o is_addi $end
     $var wire  1 r is_beq $end
     $var wire  1 B is_branch $end
     $var wire  1 t is_j $end
     $var wire  1 s is_jal $end
     $var wire  1 q is_lw $end
     $var wire  1 n is_r_type $end
     $var wire  1 p is_slti $end
     $var wire  1 ; is_sw $end
     $var wire 26 = jump_addr [25:0] $end
     $var wire  3 < jump_type [2:0] $end
     $var wire  1 C mem_read $end
     $var wire  4 7 op [3:0] $end
     $var wire  6 i opcode [5:0] $end
     $var wire  5 j rd [4:0] $end
     $var wire  5 A rdst_id [4:0] $end
     $var wire  5 ? rs [4:0] $end
     $var wire  5 ? rs1_id [4:0] $end
     $var wire  5 @ rs2_id [4:0] $end
     $var wire  5 @ rt [4:0] $end
     $var wire  5 k shamt [4:0] $end
     $var wire  1 8 ssel $end
     $var wire  2 9 wbsel [1:0] $end
     $var wire  1 ; we_dmem $end
     $var wire  1 : we_regfile $end
    $upscope $end
    $scope module dmem_inst $end
     $var wire 32 w! RAM[0] [31:0] $end
     $var wire 32 #" RAM[10] [31:0] $end
     $var wire 32 $" RAM[11] [31:0] $end
     $var wire 32 %" RAM[12] [31:0] $end
     $var wire 32 &" RAM[13] [31:0] $end
     $var wire 32 '" RAM[14] [31:0] $end
     $var wire 32 (" RAM[15] [31:0] $end
     $var wire 32 x! RAM[1] [31:0] $end
     $var wire 32 y! RAM[2] [31:0] $end
     $var wire 32 z! RAM[3] [31:0] $end
     $var wire 32 {! RAM[4] [31:0] $end
     $var wire 32 |! RAM[5] [31:0] $end
     $var wire 32 }! RAM[6] [31:0] $end
     $var wire 32 ~! RAM[7] [31:0] $end
     $var wire 32 !" RAM[8] [31:0] $end
     $var wire 32 "" RAM[9] [31:0] $end
     $var wire  6 =! addr [5:0] $end
     $var wire  1 r! clk $end
     $var wire 32 3 idx [31:0] $end
     $var wire 32 v! rdata [31:0] $end
     $var wire 32 [ wdata [31:0] $end
     $var wire  1 ^ we $end
    $upscope $end
    $scope module exmem_inst $end
     $var wire  1 r! clk $end
     $var wire 32 M ex_pc [31:0] $end
     $var wire  5 S ex_rdst_id [4:0] $end
     $var wire  2 V ex_wbsel [1:0] $end
     $var wire  1 U ex_we_dmem $end
     $var wire  1 T ex_we_reg $end
     $var wire  1 1" flush $end
     $var wire 32 Y mem_pc [31:0] $end
     $var wire 32 Z mem_rd [31:0] $end
     $var wire  5 \ mem_rdst_id [4:0] $end
     $var wire 32 [ mem_rs2 [31:0] $end
     $var wire  2 _ mem_wbsel [1:0] $end
     $var wire  1 ^ mem_we_dmem $end
     $var wire  1 ] mem_we_reg $end
     $var wire 32 H rd [31:0] $end
     $var wire 32 R rs2 [31:0] $end
     $var wire  1 s! rst $end
    $upscope $end
    $scope module hazard_ctrl_inst $end
     $var wire  1 B branch $end
     $var wire  1 r! clk $end
     $var wire  1 v data_stall_counter $end
     $var wire  2 V ex_wbsel [1:0] $end
     $var wire  1 T ex_we_reg $end
     $var wire  1 1" exmem_flush $end
     $var wire  5 \ exmem_regt [4:0] $end
     $var wire  2 u hazard_type [1:0] $end
     $var wire  1 f idex_flush $end
     $var wire  5 S idex_regt [4:0] $end
     $var wire  1 e ifid_flush $end
     $var wire  1 c ifid_write $end
     $var wire  1 C mem_read $end
     $var wire  2 _ mem_wbsel [1:0] $end
     $var wire  1 ] mem_we_reg $end
     $var wire  1 d pc_write $end
     $var wire  5 ? rs1_id [4:0] $end
     $var wire  5 @ rs2_id [4:0] $end
     $var wire  1 s! rst $end
     $var wire  1 I zero $end
    $upscope $end
    $scope module idex_instr $end
     $var wire 32 P EX_imm [31:0] $end
     $var wire 26 w EX_jump_addr [25:0] $end
     $var wire  3 x EX_jump_type [2:0] $end
     $var wire  4 O EX_op [3:0] $end
     $var wire 32 M EX_pc [31:0] $end
     $var wire 32 Q EX_ra [31:0] $end
     $var wire  5 S EX_rdst_id [4:0] $end
     $var wire 32 F EX_rs1 [31:0] $end
     $var wire 32 R EX_rs2 [31:0] $end
     $var wire  1 W EX_ssel $end
     $var wire  2 V EX_wbsel [1:0] $end
     $var wire  1 U EX_we_dmem $end
     $var wire  1 T EX_we_reg $end
     $var wire 32 > ID_imm [31:0] $end
     $var wire 26 = ID_jump_addr [25:0] $end
     $var wire  3 < ID_jump_type [2:0] $end
     $var wire  4 7 ID_op [3:0] $end
     $var wire 32 L ID_pc [31:0] $end
     $var wire  5 A ID_rdst_id [4:0] $end
     $var wire 32 D ID_rs1 [31:0] $end
     $var wire 32 E ID_rs2 [31:0] $end
     $var wire  1 8 ID_ssel $end
     $var wire  2 9 ID_wbsel [1:0] $end
     $var wire  1 ; ID_we_dmem $end
     $var wire  1 : ID_we_reg $end
     $var wire  1 r! clk $end
     $var wire  1 f flush $end
     $var wire  1 s! rst $end
    $upscope $end
    $scope module ifid_inst $end
     $var wire  1 r! clk $end
     $var wire  1 e flush $end
     $var wire  1 c ifid_write $end
     $var wire 32 6 instr [31:0] $end
     $var wire 32 4 pc [31:0] $end
     $var wire 32 L pc_out [31:0] $end
     $var wire 32 K rdata [31:0] $end
     $var wire  1 s! rst $end
    $upscope $end
    $scope module imem_inst $end
     $var wire 32 # RAM[0] [31:0] $end
     $var wire 32 - RAM[10] [31:0] $end
     $var wire 32 . RAM[11] [31:0] $end
     $var wire 32 / RAM[12] [31:0] $end
     $var wire 32 0 RAM[13] [31:0] $end
     $var wire 32 1 RAM[14] [31:0] $end
     $var wire 32 2 RAM[15] [31:0] $end
     $var wire 32 $ RAM[1] [31:0] $end
     $var wire 32 % RAM[2] [31:0] $end
     $var wire 32 & RAM[3] [31:0] $end
     $var wire 32 ' RAM[4] [31:0] $end
     $var wire 32 ( RAM[5] [31:0] $end
     $var wire 32 ) RAM[6] [31:0] $end
     $var wire 32 * RAM[7] [31:0] $end
     $var wire 32 + RAM[8] [31:0] $end
     $var wire 32 , RAM[9] [31:0] $end
     $var wire  6 y addr [5:0] $end
     $var wire 32 K rdata [31:0] $end
    $upscope $end
    $scope module memwb_inst $end
     $var wire  1 r! clk $end
     $var wire 32 u! mem_rdata [31:0] $end
     $var wire  5 \ mem_rdst_id [4:0] $end
     $var wire  1 ^ mem_we_dmem $end
     $var wire  1 ] mem_we_reg $end
     $var wire  1 s! rst $end
     $var wire 32 ` wb_rdata [31:0] $end
     $var wire  5 a wb_rdst_id [4:0] $end
     $var wire  1 b wb_we_reg $end
    $upscope $end
    $scope module reg_file_inst $end
     $var wire 32 )" DWIDTH [31:0] $end
     $var wire 32 z R[0] [31:0] $end
     $var wire 32 &! R[10] [31:0] $end
     $var wire 32 '! R[11] [31:0] $end
     $var wire 32 (! R[12] [31:0] $end
     $var wire 32 )! R[13] [31:0] $end
     $var wire 32 *! R[14] [31:0] $end
     $var wire 32 +! R[15] [31:0] $end
     $var wire 32 ,! R[16] [31:0] $end
     $var wire 32 -! R[17] [31:0] $end
     $var wire 32 .! R[18] [31:0] $end
     $var wire 32 /! R[19] [31:0] $end
     $var wire 32 { R[1] [31:0] $end
     $var wire 32 0! R[20] [31:0] $end
     $var wire 32 1! R[21] [31:0] $end
     $var wire 32 2! R[22] [31:0] $end
     $var wire 32 3! R[23] [31:0] $end
     $var wire 32 4! R[24] [31:0] $end
     $var wire 32 5! R[25] [31:0] $end
     $var wire 32 6! R[26] [31:0] $end
     $var wire 32 7! R[27] [31:0] $end
     $var wire 32 8! R[28] [31:0] $end
     $var wire 32 9! R[29] [31:0] $end
     $var wire 32 | R[2] [31:0] $end
     $var wire 32 :! R[30] [31:0] $end
     $var wire 32 ;! R[31] [31:0] $end
     $var wire 32 } R[3] [31:0] $end
     $var wire 32 ~ R[4] [31:0] $end
     $var wire 32 !! R[5] [31:0] $end
     $var wire 32 "! R[6] [31:0] $end
     $var wire 32 #! R[7] [31:0] $end
     $var wire 32 $! R[8] [31:0] $end
     $var wire 32 %! R[9] [31:0] $end
     $var wire  1 r! clk $end
     $var wire 32 <! i [31:0] $end
     $var wire 32 ` rdst [31:0] $end
     $var wire  5 a rdst_id [4:0] $end
     $var wire 32 D rs1 [31:0] $end
     $var wire  5 ? rs1_id [4:0] $end
     $var wire 32 E rs2 [31:0] $end
     $var wire  5 @ rs2_id [4:0] $end
     $var wire  1 s! rst $end
     $var wire  1 b we $end
    $upscope $end
   $upscope $end
  $upscope $end
 $upscope $end
$enddefinitions $end


#0
b00000001001010010100100000100111 #
b00100001001010010110111101111101 $
b00100001000010000010110111010001 %
b00100000000010000010001011011000 &
b00100001001010010000011000001110 '
b00100001001010011001110110111010 (
b00010001000010011111111111111110 )
b00100001000010001011111110000000 *
b00100000000010001111110111111010 +
b00010001001010001111111111111000 ,
b00000000000010000100000000100000 -
b00001000000000000000000000001011 .
b00000000000000000000000000000000 /
b00000000000000000000000000000000 0
b00000000000000000000000000000000 1
b00000000000000000000000000000000 2
b00000000000000000000000000010000 3
b00000000000000000000000000000000 4
b00000000000000000000000000000100 5
b00000000000000000000000000000000 6
b1111 7
18
b00 9
1:
0;
b000 <
b00000000000000000000000000 =
b00000000000000000000000000000000 >
b00000 ?
b00000 @
b00000 A
0B
1C
b00000000000000000000000000000000 D
b00000000000000000000000000000000 E
b00000000000000000000000000000000 F
b00000000000000000000000000000000 G
b00000000000000000000000000000000 H
1I
0J
b00000001001010010100100000100111 K
b00000000000000000000000000000000 L
b00000000000000000000000000000000 M
b00000000000000000000000000000000 N
b0000 O
b00000000000000000000000000000000 P
b00000000000000000000000000000000 Q
b00000000000000000000000000000000 R
b00000 S
0T
0U
b00 V
0W
b0000 X
b00000000000000000000000000000000 Y
b00000000000000000000000000000000 Z
b00000000000000000000000000000000 [
b00000 \
0]
0^
b00 _
b00000000000000000000000000000000 `
b00000 a
0b
1c
1d
0e
0f
b000000000000000000000000000000000 g
b000000 i
b00000 j
b00000 k
b000000 l
b0000000000000000 m
1n
0o
0p
0q
0r
0s
0t
b00 u
0v
b00000000000000000000000000 w
b000 x
b000000 y
b00000000000000000000000000000000 z
b00000000000000000000000000000000 {
b00000000000000000000000000000000 |
b00000000000000000000000000000000 }
b00000000000000000000000000000000 ~
b00000000000000000000000000000000 !!
b00000000000000000000000000000000 "!
b00000000000000000000000000000000 #!
b00000000000000000000000000000000 $!
b00000000000000000000000000000000 %!
b00000000000000000000000000000000 &!
b00000000000000000000000000000000 '!
b00000000000000000000000000000000 (!
b00000000000000000000000000000000 )!
b00000000000000000000000000000000 *!
b00000000000000000000000000000000 +!
b00000000000000000000000000000000 ,!
b00000000000000000000000000000000 -!
b00000000000000000000000000000000 .!
b00000000000000000000000000000000 /!
b00000000000000000000000000000000 0!
b00000000000000000000000000000000 1!
b00000000000000000000000000000000 2!
b00000000000000000000000000000000 3!
b00000000000000000000000000000000 4!
b00000000000000000000000000000000 5!
b00000000000000000000000000000000 6!
b00000000000000000000000000000000 7!
b00000000000000000000000000000000 8!
b00000000000000000000000000000000 9!
b00000000000000000000000000000000 :!
b00000000000000000000000000000000 ;!
b00000000000000000000000000000000 <!
b000000 =!
0>!
b00000000000000000000000000000000 ?!
b00000000000000000000000000000000 @!
b00000000000000000000000000000000 A!
b00000000000000000000000000000000 B!
b00000000000000000000000000000000 C!
b00000000000000000000000000000000 D!
b00000000000000000000000000000000 E!
b00000000000000000000000000000000 F!
b00000000000000000000000000000000 G!
b00000000000000000000000000000000 H!
b00000000000000000000000000000000 I!
b00000000000000000000000000000000 J!
b00000000000000000000000000000000 K!
b00000000000000000000000000000000 L!
b00000000000000000000000000000000 M!
b00000000000000000000000000000000 N!
b00000000000000000000000000000000 O!
b00000000000000000000000000000000 P!
b00000000000000000000000000000000 Q!
b00000000000000000000000000000000 R!
b00000000000000000000000000000000 S!
b00000000000000000000000000000000 T!
b00000000000000000000000000000000 U!
b00000000000000000000000000000000 V!
b00000000000000000000000000000000 W!
b00000000000000000000000000000000 X!
b00000000000000000000000000000000 Y!
b00000000000000000000000000000000 Z!
b00000000000000000000000000000000 [!
b00000000000000000000000000000000 \!
b00000000000000000000000000000000 ]!
b00000000000000000000000000000000 ^!
b00000000000000000000000000000000 _!
b00000000000000000000000000000000 `!
b00000000000000000000000000000000 a!
b00000000000000000000000000000000 b!
b00000000000000000000000000000000 c!
b00000000000000000000000000000000 d!
b00000000000000000000000000000000 e!
b00000000000000000000000000000000 f!
b00000000000000000000000000000000 g!
b00000000000000000000000000000000 h!
b00000000000000000000000000000000 i!
b00000000000000000000000000000000 j!
b00000000000000000000000000000000 k!
b00000000000000000000000000000000 l!
b00000000000000000000000000000000 m!
b00000000000000000000000000000000 n!
b00000000000000000000000000000000 o!
b00000000000000000000000000000000 p!
1q!
0r!
1s!
0t!
b00000000000000000000000000000000 u!
b00000000000000000000000000000000 v!
b00000000000000000000000000000000 w!
b00000000000000000000000000000000 x!
b00000000000000000000000000000000 y!
b00000000000000000000000000000000 z!
b00000000000000000000000000000000 {!
b00000000000000000000000000000000 |!
b00000000000000000000000000000000 }!
b00000000000000000000000000000000 ~!
b00000000000000000000000000000000 !"
b00000000000000000000000000000000 ""
b00000000000000000000000000000000 #"
b00000000000000000000000000000000 $"
b00000000000000000000000000000000 %"
b00000000000000000000000000000000 &"
b00000000000000000000000000000000 '"
b00000000000000000000000000000000 ("
b00000000000000000000000000100000 )"
b00000000000000000000000000000000 *"
b00000000000000000000000000110010 +"
b000 ,"
b001 -"
b010 ."
b011 /"
b100 0"
01"
b0000 2"
b0001 3"
b0010 4"
b0110 5"
b1100 6"
b0111 7"
b1001 8"
b1010 9"
b1101 :"
b1110 ;"
b000000 <"
b001000 ="
b001010 >"
b100011 ?"
b101011 @"
b000100 A"
b000011 B"
b000010 C"
b100000 D"
b100010 E"
b100100 F"
b100101 G"
b100111 H"
b101010 I"
b1111 J"
#1
b00000000000000000000000000100000 <!
1r!
#2
0q!
0r!
#3
1r!
#4
b00000000000000000000000000000001 @!
0r!
#5
b00000000000000000000000000000100 4
b00000000000000000000000000001000 5
b00000001001010010100100000100111 6
b1100 7
b01001010010100100000100111 =
b00000000000000000100100000100111 >
b01001 ?
b01001 @
b01001 A
b00100001001010010110111101111101 K
b1111 O
b00000000000000000000000000000100 Q
1T
1W
b01001 j
b100111 l
b0100100000100111 m
b000100 y
1r!
0s!
#6
b00000000000000000000000000000010 @!
0r!
#7
b00000000000000000000000000001000 4
b00000000000000000000000000001100 5
b00100001001010010110111101111101 6
b0010 7
08
b01001010010110111101111101 =
b00000000000000000110111101111101 >
b11111111111111111111111111111111 H
0I
b00100001000010000010110111010001 K
b00000000000000000000000000000100 L
b00000001001010010100100000100111 N
b1100 O
b00000000000000000100100000100111 P
b01001 S
1]
0c
0d
1f
b111111111111111111111111111111111 g
b001000 i
b01101 j
b11101 k
b111101 l
b0110111101111101 m
0n
1o
b01 u
b01001010010100100000100111 w
b001000 y
1r!
#8
b00000000000000000000000000000011 @!
0r!
#9
b00000000000000000000000000000000 H
1I
b00000000000000000000000000000000 N
b0000 O
b00000000000000000000000000000000 P
b00000000000000000000000000000000 Q
b00000 S
0T
0W
b11111111111111111111111111111111 Z
b01001 \
1b
b000000000000000000000000000000000 g
1v
b00000000000000000000000000 w
b111111 =!
1r!
b11111111111111111111111111111111 u!
#10
b00000000000000000000000000000100 @!
0r!
#11
b00000000000000000000000000000000 Z
b00000 \
0]
b11111111111111111111111111111111 `
b01001 a
1c
1d
0f
b00 u
0v
b000000 =!
1r!
b00000000000000000000000000000000 u!
#12
b00000000000000000000000000000101 @!
0r!
#13
b00000000000000000000000000001100 4
b00000000000000000000000000010000 5
b00100001000010000010110111010001 6
b01000010000010110111010001 =
b00000000000000000010110111010001 >
b01000 ?
b01000 @
b01000 A
b11111111111111111111111111111111 F
b00000000000000000110111101111101 G
b00000000000000000110111101111100 H
0I
b00100000000010000010001011011000 K
b00000000000000000000000000001000 L
b00000000000000000000000000000100 M
b00000001001010010110111101111101 N
b0010 O
b00000000000000000110111101111101 P
b00000000000000000000000000001000 Q
b11111111111111111111111111111111 R
b01001 S
1T
b00000000000000000000000000000000 `
b00000 a
0b
b100000000000000000110111101111100 g
b00101 j
b10111 k
b010001 l
b0010110111010001 m
b01001010010110111101111101 w
b001100 y
b11111111111111111111111111111111 %!
1r!
#14
b00000000000000000000000000000110 @!
0r!
#15
b00000000000000000000000000010000 4
b00000000000000000000000000010100 5
b00100000000010000010001011011000 6
b00000010000010001011011000 =
b00000000000000000010001011011000 >
b00000 ?
b00000000000000000000000000000000 F
b00000000000000000010110111010001 G
b00000000000000000010110111010001 H
b00100001001010010000011000001110 K
b00000000000000000000000000001100 L
b00000000000000000000000000001000 M
b00000001000010000010110111010001 N
b00000000000000000010110111010001 P
b00000000000000000000000000001100 Q
b00000000000000000000000000000000 R
b01000 S
b00000000000000000000000000000100 Y
b00000000000000000110111101111100 Z
b11111111111111111111111111111111 [
b01001 \
1]
0c
0d
1f
b000000000000000000010110111010001 g
b00100 j
b01011 k
b011000 l
b0010001011011000 m
b01 u
b01000010000010110111010001 w
b010000 y
b111100 =!
1r!
b00000000000000000110111101111100 u!
#16
b00000000000000000000000000000111 @!
0r!
#17
b00000000000000000000000000000000 G
b00000000000000000000000000000000 H
1I
b00000000000000000000000000000000 M
b00000000000000000000000000000000 N
b0000 O
b00000000000000000000000000000000 P
b00000000000000000000000000000000 Q
b00000 S
0T
b00000000000000000000000000001000 Y
b00000000000000000010110111010001 Z
b00000000000000000000000000000000 [
b01000 \
b00000000000000000110111101111100 `
b01001 a
1b
b000000000000000000000000000000000 g
1v
b00000000000000000000000000 w
b010001 =!
1r!
b00000000000000000010110111010001 u!
#18
b00000000000000000000000000001000 @!
0r!
#19
b00000000000000000000000000000000 Y
b00000000000000000000000000000000 Z
b00000 \
0]
b00000000000000000010110111010001 `
b01000 a
1c
1d
0f
b00 u
0v
b00000000000000000110111101111100 %!
b000000 =!
1r!
b00000000000000000000000000000000 u!
#20
b00000000000000000000000000001001 @!
0r!
#21
b00000000000000000000000000010100 4
b00000000000000000000000000011000 5
b00100001001010010000011000001110 6
b01001010010000011000001110 =
b00000000000000000000011000001110 >
b01001 ?
b01001 @
b01001 A
b00000000000000000110111101111100 D
b00000000000000000110111101111100 E
b00000000000000000010001011011000 G
b00000000000000000010001011011000 H
0I
b00100001001010011001110110111010 K
b00000000000000000000000000010000 L
b00000000000000000000000000001100 M
b00000000000010000010001011011000 N
b0010 O
b00000000000000000010001011011000 P
b00000000000000000000000000010000 Q
b00000000000000000010110111010001 R
b01000 S
1T
b00000000000000000000000000000000 `
b00000 a
0b
b000000000000000000010001011011000 g
b00000 j
b11000 k
b001110 l
b0000011000001110 m
b00000010000010001011011000 w
b010100 y
b00000000000000000010110111010001 $!
1r!
#22
b00000000000000000000000000001010 @!
0r!
#23
b00000000000000000000000000011000 4
b00000000000000000000000000011100 5
b00100001001010011001110110111010 6
b01001010011001110110111010 =
b11111111111111111001110110111010 >
b00000000000000000110111101111100 F
b00000000000000000000011000001110 G
b00000000000000000111010110001010 H
b00010001000010011111111111111110 K
b00000000000000000000000000010100 L
b00000000000000000000000000010000 M
b00000001001010010000011000001110 N
b00000000000000000000011000001110 P
b00000000000000000000000000010100 Q
b00000000000000000110111101111100 R
b01001 S
b00000000000000000000000000001100 Y
b00000000000000000010001011011000 Z
b00000000000000000010110111010001 [
b01000 \
1]
0c
0d
1f
b000000000000000000111010110001010 g
b10011 j
b10110 k
b111010 l
b1001110110111010 m
b01 u
b01001010010000011000001110 w
b011000 y
b011000 =!
1r!
b00000000000000000010001011011000 u!
#24
b00000000000000000000000000001011 @!
0r!
#25
b00000000000000000000000000000000 F
b00000000000000000000000000000000 G
b00000000000000000000000000000000 H
1I
b00000000000000000000000000000000 M
b00000000000000000000000000000000 N
b0000 O
b00000000000000000000000000000000 P
b00000000000000000000000000000000 Q
b00000000000000000000000000000000 R
b00000 S
0T
b00000000000000000000000000010000 Y
b00000000000000000111010110001010 Z
b00000000000000000110111101111100 [
b01001 \
b00000000000000000010001011011000 `
b01000 a
1b
b000000000000000000000000000000000 g
1v
b00000000000000000000000000 w
b001010 =!
1r!
b00000000000000000111010110001010 u!
#26
b00000000000000000000000000001100 @!
0r!
#27
b00000000000000000000000000000000 Y
b00000000000000000000000000000000 Z
b00000000000000000000000000000000 [
b00000 \
0]
b00000000000000000111010110001010 `
b01001 a
1c
1d
0f
b00 u
0v
b00000000000000000010001011011000 $!
b000000 =!
1r!
b00000000000000000000000000000000 u!
#28
b00000000000000000000000000001101 @!
0r!
#29
b00000000000000000000000000011100 4
b00000000000000000000000000100000 5
b00010001000010011111111111111110 6
b0110 7
18
0:
b001 <
b01000010011111111111111110 =
b11111111111111111111111111111110 >
b01000 ?
b00000 A
1B
b00000000000000000010001011011000 D
b00000000000000000111010110001010 E
b00000000000000000111010110001010 F
b11111111111111111001110110111010 G
b00000000000000000001001101000100 H
0I
b00100001000010001011111110000000 K
b00000000000000000000000000011000 L
b00000000000000000000000000010100 M
b00000001001010011001110110111010 N
b0010 O
b11111111111111111001110110111010 P
b00000000000000000000000000011000 Q
b00000000000000000111010110001010 R
b01001 S
1T
b00000000000000000000000000000000 `
b00000 a
0b
0c
0d
1f
b100000000000000000001001101000100 g
b000100 i
b11111 j
b11111 k
b111110 l
b1111111111111110 m
0o
1r
b01 u
b01001010011001110110111010 w
b011100 y
b00000000000000000111010110001010 %!
1r!
#30
b00000000000000000000000000001110 @!
0r!
