waveform.vcd
$version Generated by VerilatedVcd $end
$date Sun May 21 21:58:13 2023 $end
$timescale 1s $end

 $scope module dut $end
  $var wire  1 0! clk $end
  $var wire  1 2! correctness $end
  $var wire  1 1! rst $end
  $scope module hw3_tb $end
   $var wire 32 (" DWIDTH [31:0] $end
   $var wire  1 0! clk $end
   $var wire  1 $ correctness $end
   $var wire 16 & correctness_dmem [15:0] $end
   $var wire 32 % correctness_reg [31:0] $end
   $var wire 32 S! golden_dmem[0] [31:0] $end
   $var wire 32 ]! golden_dmem[10] [31:0] $end
   $var wire 32 ^! golden_dmem[11] [31:0] $end
   $var wire 32 _! golden_dmem[12] [31:0] $end
   $var wire 32 `! golden_dmem[13] [31:0] $end
   $var wire 32 a! golden_dmem[14] [31:0] $end
   $var wire 32 b! golden_dmem[15] [31:0] $end
   $var wire 32 T! golden_dmem[1] [31:0] $end
   $var wire 32 U! golden_dmem[2] [31:0] $end
   $var wire 32 V! golden_dmem[3] [31:0] $end
   $var wire 32 W! golden_dmem[4] [31:0] $end
   $var wire 32 X! golden_dmem[5] [31:0] $end
   $var wire 32 Y! golden_dmem[6] [31:0] $end
   $var wire 32 Z! golden_dmem[7] [31:0] $end
   $var wire 32 [! golden_dmem[8] [31:0] $end
   $var wire 32 \! golden_dmem[9] [31:0] $end
   $var wire 32 3! golden_reg[0] [31:0] $end
   $var wire 32 =! golden_reg[10] [31:0] $end
   $var wire 32 >! golden_reg[11] [31:0] $end
   $var wire 32 ?! golden_reg[12] [31:0] $end
   $var wire 32 @! golden_reg[13] [31:0] $end
   $var wire 32 A! golden_reg[14] [31:0] $end
   $var wire 32 B! golden_reg[15] [31:0] $end
   $var wire 32 C! golden_reg[16] [31:0] $end
   $var wire 32 D! golden_reg[17] [31:0] $end
   $var wire 32 E! golden_reg[18] [31:0] $end
   $var wire 32 F! golden_reg[19] [31:0] $end
   $var wire 32 4! golden_reg[1] [31:0] $end
   $var wire 32 G! golden_reg[20] [31:0] $end
   $var wire 32 H! golden_reg[21] [31:0] $end
   $var wire 32 I! golden_reg[22] [31:0] $end
   $var wire 32 J! golden_reg[23] [31:0] $end
   $var wire 32 K! golden_reg[24] [31:0] $end
   $var wire 32 L! golden_reg[25] [31:0] $end
   $var wire 32 M! golden_reg[26] [31:0] $end
   $var wire 32 N! golden_reg[27] [31:0] $end
   $var wire 32 O! golden_reg[28] [31:0] $end
   $var wire 32 P! golden_reg[29] [31:0] $end
   $var wire 32 5! golden_reg[2] [31:0] $end
   $var wire 32 Q! golden_reg[30] [31:0] $end
   $var wire 32 R! golden_reg[31] [31:0] $end
   $var wire 32 6! golden_reg[3] [31:0] $end
   $var wire 32 7! golden_reg[4] [31:0] $end
   $var wire 32 8! golden_reg[5] [31:0] $end
   $var wire 32 9! golden_reg[6] [31:0] $end
   $var wire 32 :! golden_reg[7] [31:0] $end
   $var wire 32 ;! golden_reg[8] [31:0] $end
   $var wire 32 <! golden_reg[9] [31:0] $end
   $var wire 32 )" i [31:0] $end
   $var wire  1 1! rst $end
   $var wire 32 *" tmp [31:0] $end
   $scope module core_top_inst $end
    $var wire 32 (" DWIDTH [31:0] $end
    $var wire  3 ," J_TYPE_BEQ [2:0] $end
    $var wire  3 /" J_TYPE_J [2:0] $end
    $var wire  3 -" J_TYPE_JAL [2:0] $end
    $var wire  3 ." J_TYPE_JR [2:0] $end
    $var wire  3 +" J_TYPE_NOP [2:0] $end
    $var wire 32 ; alu_out [31:0] $end
    $var wire 32 9 alu_rs1 [31:0] $end
    $var wire 32 : alu_rs2 [31:0] $end
    $var wire  1 5 branch $end
    $var wire  1 0! clk $end
    $var wire 32 d! dmem_out [31:0] $end
    $var wire 32 B ex_imm [31:0] $end
    $var wire 32 @ ex_jump_addr [31:0] $end
    $var wire  4 J ex_jump_type [3:0] $end
    $var wire  4 A ex_op [3:0] $end
    $var wire 32 ? ex_pc [31:0] $end
    $var wire 32 C ex_ra [31:0] $end
    $var wire  5 E ex_rdst_id [4:0] $end
    $var wire 32 9 ex_rs1 [31:0] $end
    $var wire 32 D ex_rs2 [31:0] $end
    $var wire  1 I ex_ssel $end
    $var wire  2 H ex_wbsel [1:0] $end
    $var wire  1 G ex_we_dmem $end
    $var wire  1 F ex_we_reg $end
    $var wire  1 0" exmem_flush $end
    $var wire  1 X idex_flush $end
    $var wire  1 W ifid_flush $end
    $var wire  1 U ifid_write $end
    $var wire 32 1 imm [31:0] $end
    $var wire 32 ) instr [31:0] $end
    $var wire 26 0 jump_addr [25:0] $end
    $var wire  3 / jump_type [2:0] $end
    $var wire 32 K mem_pc [31:0] $end
    $var wire 32 L mem_rd [31:0] $end
    $var wire  5 N mem_rdst_id [4:0] $end
    $var wire  1 6 mem_read $end
    $var wire 32 M mem_rs2 [31:0] $end
    $var wire  2 Q mem_wbsel [1:0] $end
    $var wire  1 P mem_we_dmem $end
    $var wire  1 O mem_we_reg $end
    $var wire  4 * op [3:0] $end
    $var wire 32 > out [31:0] $end
    $var wire  1 = overflow $end
    $var wire 32 ' pc [31:0] $end
    $var wire 32 ( pc_increment [31:0] $end
    $var wire  1 V pc_write $end
    $var wire 32 c! rd [31:0] $end
    $var wire 32 e! rdata [31:0] $end
    $var wire  5 4 rdst_id [4:0] $end
    $var wire  5 2 rs1_id [4:0] $end
    $var wire 32 7 rs1_out [31:0] $end
    $var wire  5 3 rs2_id [4:0] $end
    $var wire 32 8 rs2_out [31:0] $end
    $var wire  1 1! rst $end
    $var wire  1 + ssel $end
    $var wire 32 R wb_rdata [31:0] $end
    $var wire  5 S wb_rdst_id [4:0] $end
    $var wire  1 T wb_we_reg $end
    $var wire  2 , wbsel [1:0] $end
    $var wire  1 . we_dmem $end
    $var wire  1 - we_regfile $end
    $var wire  1 < zero $end
    $scope module alu_inst $end
     $var wire 32 (" DWIDTH [31:0] $end
     $var wire  4 3" OP_ADD [3:0] $end
     $var wire  4 1" OP_AND [3:0] $end
     $var wire  4 :" OP_LUI [3:0] $end
     $var wire  4 5" OP_NOR [3:0] $end
     $var wire  4 2" OP_OR [3:0] $end
     $var wire  4 7" OP_SLL [3:0] $end
     $var wire  4 6" OP_SLT [3:0] $end
     $var wire  4 9" OP_SRA [3:0] $end
     $var wire  4 8" OP_SRL [3:0] $end
     $var wire  4 4" OP_SUB [3:0] $end
     $var wire  4 A op [3:0] $end
     $var wire  1 = overflow $end
     $var wire 32 ; rd [31:0] $end
     $var wire 33 Y result [32:0] $end
     $var wire 32 9 rs1 [31:0] $end
     $var wire 32 : rs2 [31:0] $end
     $var wire  1 < zero $end
    $upscope $end
    $scope module decode_inst $end
     $var wire  4 3" ALU_OP_ADD [3:0] $end
     $var wire  4 1" ALU_OP_AND [3:0] $end
     $var wire  4 I" ALU_OP_NOP [3:0] $end
     $var wire  4 5" ALU_OP_NOR [3:0] $end
     $var wire  4 2" ALU_OP_OR [3:0] $end
     $var wire  4 6" ALU_OP_SLT [3:0] $end
     $var wire  4 4" ALU_OP_SUB [3:0] $end
     $var wire 32 (" DWIDTH [31:0] $end
     $var wire  6 C" FUNCT_ADD [5:0] $end
     $var wire  6 E" FUNCT_AND [5:0] $end
     $var wire  6 <" FUNCT_JR [5:0] $end
     $var wire  6 G" FUNCT_NOR [5:0] $end
     $var wire  6 F" FUNCT_OR [5:0] $end
     $var wire  6 H" FUNCT_SLT [5:0] $end
     $var wire  6 D" FUNCT_SUB [5:0] $end
     $var wire  3 ," J_TYPE_BEQ [2:0] $end
     $var wire  3 /" J_TYPE_J [2:0] $end
     $var wire  3 -" J_TYPE_JAL [2:0] $end
     $var wire  3 ." J_TYPE_JR [2:0] $end
     $var wire  3 +" J_TYPE_NOP [2:0] $end
     $var wire  6 <" OP_ADDI [5:0] $end
     $var wire  6 @" OP_BEQ [5:0] $end
     $var wire  6 B" OP_J [5:0] $end
     $var wire  6 A" OP_JAL [5:0] $end
     $var wire  6 >" OP_LW [5:0] $end
     $var wire  6 ;" OP_R_TYPE [5:0] $end
     $var wire  6 =" OP_SLTI [5:0] $end
     $var wire  6 ?" OP_SW [5:0] $end
     $var wire 26 0 address [25:0] $end
     $var wire  6 ^ funct [5:0] $end
     $var wire 32 1 imm [31:0] $end
     $var wire 16 _ immediate [15:0] $end
     $var wire 32 ) instr [31:0] $end
     $var wire  1 a is_addi $end
     $var wire  1 d is_beq $end
     $var wire  1 5 is_branch $end
     $var wire  1 f is_j $end
     $var wire  1 e is_jal $end
     $var wire  1 c is_lw $end
     $var wire  1 ` is_r_type $end
     $var wire  1 b is_slti $end
     $var wire  1 . is_sw $end
     $var wire 26 0 jump_addr [25:0] $end
     $var wire  3 / jump_type [2:0] $end
     $var wire  1 6 mem_read $end
     $var wire  4 * op [3:0] $end
     $var wire  6 [ opcode [5:0] $end
     $var wire  5 \ rd [4:0] $end
     $var wire  5 4 rdst_id [4:0] $end
     $var wire  5 2 rs [4:0] $end
     $var wire  5 2 rs1_id [4:0] $end
     $var wire  5 3 rs2_id [4:0] $end
     $var wire  5 3 rt [4:0] $end
     $var wire  5 ] shamt [4:0] $end
     $var wire  1 + ssel $end
     $var wire  2 , wbsel [1:0] $end
     $var wire  1 . we_dmem $end
     $var wire  1 - we_regfile $end
    $upscope $end
    $scope module dmem_inst $end
     $var wire 32 f! RAM[0] [31:0] $end
     $var wire 32 p! RAM[10] [31:0] $end
     $var wire 32 q! RAM[11] [31:0] $end
     $var wire 32 r! RAM[12] [31:0] $end
     $var wire 32 s! RAM[13] [31:0] $end
     $var wire 32 t! RAM[14] [31:0] $end
     $var wire 32 u! RAM[15] [31:0] $end
     $var wire 32 g! RAM[1] [31:0] $end
     $var wire 32 h! RAM[2] [31:0] $end
     $var wire 32 i! RAM[3] [31:0] $end
     $var wire 32 j! RAM[4] [31:0] $end
     $var wire 32 k! RAM[5] [31:0] $end
     $var wire 32 l! RAM[6] [31:0] $end
     $var wire 32 m! RAM[7] [31:0] $end
     $var wire 32 n! RAM[8] [31:0] $end
     $var wire 32 o! RAM[9] [31:0] $end
     $var wire  6 .! addr [5:0] $end
     $var wire  1 0! clk $end
     $var wire 32 # idx [31:0] $end
     $var wire 32 d! rdata [31:0] $end
     $var wire 32 M wdata [31:0] $end
     $var wire  1 P we $end
    $upscope $end
    $scope module exmem_inst $end
     $var wire  1 0! clk $end
     $var wire 32 ? ex_pc [31:0] $end
     $var wire  5 E ex_rdst_id [4:0] $end
     $var wire  2 H ex_wbsel [1:0] $end
     $var wire  1 G ex_we_dmem $end
     $var wire  1 F ex_we_reg $end
     $var wire  1 0" flush $end
     $var wire 32 K mem_pc [31:0] $end
     $var wire 32 L mem_rd [31:0] $end
     $var wire  5 N mem_rdst_id [4:0] $end
     $var wire 32 M mem_rs2 [31:0] $end
     $var wire  2 Q mem_wbsel [1:0] $end
     $var wire  1 P mem_we_dmem $end
     $var wire  1 O mem_we_reg $end
     $var wire 32 ; rd [31:0] $end
     $var wire 32 D rs2 [31:0] $end
     $var wire  1 1! rst $end
    $upscope $end
    $scope module hazard_ctrl_inst $end
     $var wire  1 5 branch $end
     $var wire  1 0! clk $end
     $var wire 32 h data_stall_counter [31:0] $end
     $var wire  2 H ex_wbsel [1:0] $end
     $var wire  1 F ex_we_reg $end
     $var wire  1 0" exmem_flush $end
     $var wire  5 N exmem_regt [4:0] $end
     $var wire  2 g hazard_type [1:0] $end
     $var wire  1 X idex_flush $end
     $var wire  5 E idex_regt [4:0] $end
     $var wire  1 W ifid_flush $end
     $var wire  1 U ifid_write $end
     $var wire  1 6 mem_read $end
     $var wire  2 Q mem_wbsel [1:0] $end
     $var wire  1 O mem_we_reg $end
     $var wire  1 V pc_write $end
     $var wire  5 2 rs1_id [4:0] $end
     $var wire  5 3 rs2_id [4:0] $end
     $var wire  1 1! rst $end
     $var wire  1 < zero $end
    $upscope $end
    $scope module idex_instr $end
     $var wire 32 B EX_imm [31:0] $end
     $var wire 26 i EX_jump_addr [25:0] $end
     $var wire  3 j EX_jump_type [2:0] $end
     $var wire  4 A EX_op [3:0] $end
     $var wire 32 ? EX_pc [31:0] $end
     $var wire 32 C EX_ra [31:0] $end
     $var wire  5 E EX_rdst_id [4:0] $end
     $var wire 32 9 EX_rs1 [31:0] $end
     $var wire 32 D EX_rs2 [31:0] $end
     $var wire  1 I EX_ssel $end
     $var wire  2 H EX_wbsel [1:0] $end
     $var wire  1 G EX_we_dmem $end
     $var wire  1 F EX_we_reg $end
     $var wire 32 1 ID_imm [31:0] $end
     $var wire 26 0 ID_jump_addr [25:0] $end
     $var wire  3 / ID_jump_type [2:0] $end
     $var wire  4 * ID_op [3:0] $end
     $var wire 32 > ID_pc [31:0] $end
     $var wire  5 4 ID_rdst_id [4:0] $end
     $var wire 32 7 ID_rs1 [31:0] $end
     $var wire 32 8 ID_rs2 [31:0] $end
     $var wire  1 + ID_ssel $end
     $var wire  2 , ID_wbsel [1:0] $end
     $var wire  1 . ID_we_dmem $end
     $var wire  1 - ID_we_reg $end
     $var wire  1 0! clk $end
     $var wire  1 X flush $end
     $var wire  1 1! rst $end
    $upscope $end
    $scope module ifid_inst $end
     $var wire  1 0! clk $end
     $var wire  1 W flush $end
     $var wire  1 U ifid_write $end
     $var wire 32 ) instr [31:0] $end
     $var wire 32 ' pc [31:0] $end
     $var wire 32 > pc_out [31:0] $end
     $var wire 32 e! rdata [31:0] $end
     $var wire  1 1! rst $end
    $upscope $end
    $scope module imem_inst $end
     $var wire 32 v! RAM[0] [31:0] $end
     $var wire 32 "" RAM[10] [31:0] $end
     $var wire 32 #" RAM[11] [31:0] $end
     $var wire 32 $" RAM[12] [31:0] $end
     $var wire 32 %" RAM[13] [31:0] $end
     $var wire 32 &" RAM[14] [31:0] $end
     $var wire 32 '" RAM[15] [31:0] $end
     $var wire 32 w! RAM[1] [31:0] $end
     $var wire 32 x! RAM[2] [31:0] $end
     $var wire 32 y! RAM[3] [31:0] $end
     $var wire 32 z! RAM[4] [31:0] $end
     $var wire 32 {! RAM[5] [31:0] $end
     $var wire 32 |! RAM[6] [31:0] $end
     $var wire 32 }! RAM[7] [31:0] $end
     $var wire 32 ~! RAM[8] [31:0] $end
     $var wire 32 !" RAM[9] [31:0] $end
     $var wire  6 /! addr [5:0] $end
     $var wire 32 e! rdata [31:0] $end
    $upscope $end
    $scope module memwb_inst $end
     $var wire  1 0! clk $end
     $var wire 32 c! mem_rdata [31:0] $end
     $var wire  5 N mem_rdst_id [4:0] $end
     $var wire  1 P mem_we_dmem $end
     $var wire  1 O mem_we_reg $end
     $var wire  1 1! rst $end
     $var wire 32 R wb_rdata [31:0] $end
     $var wire  5 S wb_rdst_id [4:0] $end
     $var wire  1 T wb_we_reg $end
    $upscope $end
    $scope module reg_file_inst $end
     $var wire 32 (" DWIDTH [31:0] $end
     $var wire 32 k R[0] [31:0] $end
     $var wire 32 u R[10] [31:0] $end
     $var wire 32 v R[11] [31:0] $end
     $var wire 32 w R[12] [31:0] $end
     $var wire 32 x R[13] [31:0] $end
     $var wire 32 y R[14] [31:0] $end
     $var wire 32 z R[15] [31:0] $end
     $var wire 32 { R[16] [31:0] $end
     $var wire 32 | R[17] [31:0] $end
     $var wire 32 } R[18] [31:0] $end
     $var wire 32 ~ R[19] [31:0] $end
     $var wire 32 l R[1] [31:0] $end
     $var wire 32 !! R[20] [31:0] $end
     $var wire 32 "! R[21] [31:0] $end
     $var wire 32 #! R[22] [31:0] $end
     $var wire 32 $! R[23] [31:0] $end
     $var wire 32 %! R[24] [31:0] $end
     $var wire 32 &! R[25] [31:0] $end
     $var wire 32 '! R[26] [31:0] $end
     $var wire 32 (! R[27] [31:0] $end
     $var wire 32 )! R[28] [31:0] $end
     $var wire 32 *! R[29] [31:0] $end
     $var wire 32 m R[2] [31:0] $end
     $var wire 32 +! R[30] [31:0] $end
     $var wire 32 ,! R[31] [31:0] $end
     $var wire 32 n R[3] [31:0] $end
     $var wire 32 o R[4] [31:0] $end
     $var wire 32 p R[5] [31:0] $end
     $var wire 32 q R[6] [31:0] $end
     $var wire 32 r R[7] [31:0] $end
     $var wire 32 s R[8] [31:0] $end
     $var wire 32 t R[9] [31:0] $end
     $var wire  1 0! clk $end
     $var wire 32 -! i [31:0] $end
     $var wire 32 R rdst [31:0] $end
     $var wire  5 S rdst_id [4:0] $end
     $var wire 32 7 rs1 [31:0] $end
     $var wire  5 2 rs1_id [4:0] $end
     $var wire 32 8 rs2 [31:0] $end
     $var wire  5 3 rs2_id [4:0] $end
     $var wire  1 1! rst $end
     $var wire  1 T we $end
    $upscope $end
   $upscope $end
  $upscope $end
 $upscope $end
$enddefinitions $end


#0
b00000000000000000000000000010000 #
1$
b11111111111111111111111111111111 %
b1111111111111111 &
b00000000000000000000000000000000 '
b00000000000000000000000000000100 (
b00000000000000000000000000000000 )
b1111 *
1+
b00 ,
1-
0.
b000 /
b00000000000000000000000000 0
b00000000000000000000000000000000 1
b00000 2
b00000 3
b00000 4
05
16
b00000000000000000000000000000000 7
b00000000000000000000000000000000 8
b00000000000000000000000000000000 9
b00000000000000000000000000000000 :
b00000000000000000000000000000000 ;
1<
0=
b00000000000000000000000000000000 >
b00000000000000000000000000000000 ?
b00000000000000000000000000000000 @
b0000 A
b00000000000000000000000000000000 B
b00000000000000000000000000000000 C
b00000000000000000000000000000000 D
b00000 E
0F
0G
b00 H
0I
b0000 J
b00000000000000000000000000000000 K
b00000000000000000000000000000000 L
b00000000000000000000000000000000 M
b00000 N
0O
0P
b00 Q
b00000000000000000000000000000000 R
b00000 S
0T
1U
1V
0W
0X
b000000000000000000000000000000000 Y
b000000 [
b00000 \
b00000 ]
b000000 ^
b0000000000000000 _
1`
0a
0b
0c
0d
0e
0f
b00 g
b00000000000000000000000000000000 h
b00000000000000000000000000 i
b000 j
b00000000000000000000000000000000 k
b00000000000000000000000000000000 l
b00000000000000000000000000000000 m
b00000000000000000000000000000000 n
b00000000000000000000000000000000 o
b00000000000000000000000000000000 p
b00000000000000000000000000000000 q
b00000000000000000000000000000000 r
b00000000000000000000000000000000 s
b00000000000000000000000000000000 t
b00000000000000000000000000000000 u
b00000000000000000000000000000000 v
b00000000000000000000000000000000 w
b00000000000000000000000000000000 x
b00000000000000000000000000000000 y
b00000000000000000000000000000000 z
b00000000000000000000000000000000 {
b00000000000000000000000000000000 |
b00000000000000000000000000000000 }
b00000000000000000000000000000000 ~
b00000000000000000000000000000000 !!
b00000000000000000000000000000000 "!
b00000000000000000000000000000000 #!
b00000000000000000000000000000000 $!
b00000000000000000000000000000000 %!
b00000000000000000000000000000000 &!
b00000000000000000000000000000000 '!
b00000000000000000000000000000000 (!
b00000000000000000000000000000000 )!
b00000000000000000000000000000000 *!
b00000000000000000000000000000000 +!
b00000000000000000000000000000000 ,!
b00000000000000000000000000000000 -!
b000000 .!
b000000 /!
00!
11!
12!
b00000000000000000000000000000000 3!
b00000000000000000000000000000000 4!
b00000000000000000000000000000000 5!
b00000000000000000000000000000000 6!
b00000000000000000000000000000000 7!
b00000000000000000000000000000000 8!
b00000000000000000000000000000000 9!
b00000000000000000000000000000000 :!
b00000000000000000000000000000000 ;!
b00000000000000000000000000000000 <!
b00000000000000000000000000000000 =!
b00000000000000000000000000000000 >!
b00000000000000000000000000000000 ?!
b00000000000000000000000000000000 @!
b00000000000000000000000000000000 A!
b00000000000000000000000000000000 B!
b00000000000000000000000000000000 C!
b00000000000000000000000000000000 D!
b00000000000000000000000000000000 E!
b00000000000000000000000000000000 F!
b00000000000000000000000000000000 G!
b00000000000000000000000000000000 H!
b00000000000000000000000000000000 I!
b00000000000000000000000000000000 J!
b00000000000000000000000000000000 K!
b00000000000000000000000000000000 L!
b00000000000000000000000000000000 M!
b00000000000000000000000000000000 N!
b00000000000000000000000000000000 O!
b00000000000000000000000000000000 P!
b00000000000000000000000000000000 Q!
b00000000000000000000000000000000 R!
b00000000000000000000000000000000 S!
b00000000000000000000000000000000 T!
b00000000000000000000000000000000 U!
b00000000000000000000000000000000 V!
b00000000000000000000000000000000 W!
b00000000000000000000000000000000 X!
b00000000000000000000000000000000 Y!
b00000000000000000000000000000000 Z!
b00000000000000000000000000000000 [!
b00000000000000000000000000000000 \!
b00000000000000000000000000000000 ]!
b00000000000000000000000000000000 ^!
b00000000000000000000000000000000 _!
b00000000000000000000000000000000 `!
b00000000000000000000000000000000 a!
b00000000000000000000000000000000 b!
b00000000000000000000000000000000 c!
b00000000000000000000000000000000 d!
b00000000000000000000000000000000 e!
b00000000000000000000000000000000 f!
b00000000000000000000000000000000 g!
b00000000000000000000000000000000 h!
b00000000000000000000000000000000 i!
b00000000000000000000000000000000 j!
b00000000000000000000000000000000 k!
b00000000000000000000000000000000 l!
b00000000000000000000000000000000 m!
b00000000000000000000000000000000 n!
b00000000000000000000000000000000 o!
b00000000000000000000000000000000 p!
b00000000000000000000000000000000 q!
b00000000000000000000000000000000 r!
b00000000000000000000000000000000 s!
b00000000000000000000000000000000 t!
b00000000000000000000000000000000 u!
b00000000000000000000000000000000 v!
b00000000000000000000000000000000 w!
b00000000000000000000000000000000 x!
b00000000000000000000000000000000 y!
b00000000000000000000000000000000 z!
b00000000000000000000000000000000 {!
b00000000000000000000000000000000 |!
b00000000000000000000000000000000 }!
b00000000000000000000000000000000 ~!
b00000000000000000000000000000000 !"
b00000000000000000000000000000000 ""
b00000000000000000000000000000000 #"
b00000000000000000000000000000000 $"
b00000000000000000000000000000000 %"
b00000000000000000000000000000000 &"
b00000000000000000000000000000000 '"
b00000000000000000000000000100000 ("
b00000000000000000000000000010000 )"
b00000000000000000000000000000000 *"
b000 +"
b001 ,"
b010 -"
b011 ."
b100 /"
00"
b0000 1"
b0001 2"
b0010 3"
b0110 4"
b1100 5"
b0111 6"
b1001 7"
b1010 8"
b1101 9"
b1110 :"
b000000 ;"
b001000 <"
b001010 ="
b100011 >"
b101011 ?"
b000100 @"
b000011 A"
b000010 B"
b100000 C"
b100010 D"
b100100 E"
b100101 F"
b100111 G"
b101010 H"
b1111 I"
#1
b00000000000000000000000000100000 -!
10!
#2
00!
#3
10!
#4
00!
#5
10!
#6
00!
#7
10!
#8
00!
#9
10!
#10
00!
b00000000000000000000000000000001 ;!
b00000000000000000000000000001000 <!
b00000000000000000000000000000010 =!
b00000000000000000000000000001010 >!
b00000000000000000000000000000001 T!
b00000000000000000000000000000010 U!
b00000000000000000000000000000011 V!
b00000000000000000000000000000100 W!
b00000000000000000000000000000101 X!
b00000000000000000000000000000110 Y!
b00000000000000000000000000000111 Z!
b00000000000000000000000000001000 [!
b00000000000000000000000000001001 \!
b00000000000000000000000000001010 ]!
b00000000000000000000000000001011 ^!
b00000000000000000000000000001100 _!
b00000000000000000000000000001101 `!
b00000000000000000000000000001110 a!
b00000000000000000000000000001111 b!
b10001100000010000000000000000100 e!
b00000000000000000000000000000001 g!
b00000000000000000000000000000010 h!
b00000000000000000000000000000011 i!
b00000000000000000000000000000100 j!
b00000000000000000000000000000101 k!
b00000000000000000000000000000110 l!
b00000000000000000000000000000111 m!
b00000000000000000000000000001000 n!
b00000000000000000000000000001001 o!
b00000000000000000000000000001010 p!
b00000000000000000000000000001011 q!
b00000000000000000000000000001100 r!
b00000000000000000000000000001101 s!
b00000000000000000000000000001110 t!
b00000000000000000000000000001111 u!
b10001100000010000000000000000100 v!
b00100001000010010000000000000111 w!
b10001101001010100000000000000000 x!
b00000001001010100101100000100000 y!
#11
0$
b11111111111111111111000011111111 %
10!
02!
#12
00!
#13
10!
#14
00!
#15
10!
#16
00!
#17
10!
#18
00!
#19
10!
#20
00!
01!
#21
b00000000000000000000000000000100 '
b00000000000000000000000000001000 (
b10001100000010000000000000000100 )
b0010 *
0+
b01 ,
b00000010000000000000000100 0
b00000000000000000000000000000100 1
b01000 3
b01000 4
b1111 A
b00000000000000000000000000000100 C
1F
1I
b100011 [
b000100 ^
b0000000000000100 _
0`
1c
b000100 /!
10!
b00100001000010010000000000000111 e!
#22
00!
#23
b00000000000000000000000000001000 '
b00000000000000000000000000001100 (
b00100001000010010000000000000111 )
b00 ,
b01000010010000000000000111 0
b00000000000000000000000000000111 1
b01000 2
b01001 3
b01001 4
b00000000000000000000000000000100 :
b00000000000000000000000000000100 ;
0<
b00000000000000000000000000000100 >
b00000000000010000000000000000100 @
b0010 A
b00000000000000000000000000000100 B
b01000 E
b01 H
0I
1O
0U
0V
1X
b000000000000000000000000000000100 Y
b001000 [
b000111 ^
b0000000000000111 _
1a
0c
b01 g
b00000010000000000000000100 i
b001000 /!
10!
b10001101001010100000000000000000 e!
#24
00!
#25
b00000000000000000000000000000000 :
b00000000000000000000000000000000 ;
1<
b00000000000000000000000000000000 @
b0000 A
b00000000000000000000000000000000 B
b00000000000000000000000000000000 C
b00000 E
0F
b00 H
b00000000000000000000000000000100 L
b01000 N
b01 Q
1T
b000000000000000000000000000000000 Y
b00000000000000000000000000 i
b000100 .!
10!
b00000000000000000000000000000001 c!
b00000000000000000000000000000001 d!
#26
00!
#27
b00000000000000000000000000000000 L
b00000 N
0O
b00 Q
b00000000000000000000000000000001 R
b01000 S
1U
1V
0X
b00 g
b000000 .!
10!
b00000000000000000000000000000000 c!
b00000000000000000000000000000000 d!
#28
00!
#29
b11111111111111111111000111111111 %
b00000000000000000000000000001100 '
b00000000000000000000000000010000 (
b10001101001010100000000000000000 )
b01 ,
b01001010100000000000000000 0
b00000000000000000000000000000000 1
b01001 2
b01010 3
b01010 4
b00000000000000000000000000000001 9
b00000000000000000000000000000111 :
b00000000000000000000000000001000 ;
0<
b00000000000000000000000000001000 >
b00000000000000000000000000000100 ?
b00000001000010010000000000000111 @
b0010 A
b00000000000000000000000000000111 B
b00000000000000000000000000001000 C
b01001 E
1F
b00000000000000000000000000000000 R
b00000 S
0T
0U
0V
1X
b000000000000000000000000000001000 Y
b100011 [
b000000 ^
b0000000000000000 _
0a
1c
b01 g
b01000010010000000000000111 i
b00000000000000000000000000000001 s
b001100 /!
10!
b00000001001010100101100000100000 e!
#30
00!
#31
b00000000000000000000000000000000 9
b00000000000000000000000000000000 :
b00000000000000000000000000000000 ;
1<
b00000000000000000000000000000000 ?
b00000000000000000000000000000000 @
b0000 A
b00000000000000000000000000000000 B
b00000000000000000000000000000000 C
b00000 E
0F
b00000000000000000000000000000100 K
b00000000000000000000000000001000 L
b01001 N
1O
b000000000000000000000000000000000 Y
b00000000000000000000000000 i
b001000 .!
10!
b00000000000000000000000000001000 c!
b00000000000000000000000000000010 d!
#32
00!
#33
b00000000000000000000000000000000 K
b00000000000000000000000000000000 L
b00000 N
0O
b00000000000000000000000000001000 R
b01001 S
1T
1U
1V
0X
b00 g
b000000 .!
10!
b00000000000000000000000000000000 c!
b00000000000000000000000000000000 d!
#34
00!
#35
b11111111111111111111001111111111 %
b00000000000000000000000000010000 '
b00000000000000000000000000010100 (
b00000001001010100101100000100000 )
1+
b00 ,
b01001010100101100000100000 0
b00000000000000000101100000100000 1
b01011 4
b00000000000000000000000000001000 7
b00000000000000000000000000001000 9
b00000000000000000000000000001000 ;
0<
b00000000000000000000000000001100 >
b00000000000000000000000000001000 ?
b00000001001010100000000000000000 @
b0010 A
b00000000000000000000000000001100 C
b01010 E
1F
b01 H
b00000000000000000000000000000000 R
b00000 S
0T
0U
0V
1X
b000000000000000000000000000001000 Y
b000000 [
b01011 \
b100000 ^
b0101100000100000 _
1`
0c
b01 g
b01001010100000000000000000 i
b00000000000000000000000000001000 t
b010000 /!
10!
b00000000000000000000000000000000 e!
#36
00!
#37
b00000000000000000000000000000000 9
b00000000000000000000000000000000 ;
1<
b00000000000000000000000000000000 ?
b00000000000000000000000000000000 @
b0000 A
b00000000000000000000000000000000 C
b00000 E
0F
b00 H
b00000000000000000000000000001000 K
b00000000000000000000000000001000 L
b01010 N
1O
b01 Q
b000000000000000000000000000000000 Y
b00000000000000000000000000 i
b001000 .!
10!
b00000000000000000000000000000010 c!
b00000000000000000000000000000010 d!
#38
00!
#39
b00000000000000000000000000000000 K
b00000000000000000000000000000000 L
b00000 N
0O
b00 Q
b00000000000000000000000000000010 R
b01010 S
1T
1U
1V
0X
b00 g
b000000 .!
10!
b00000000000000000000000000000000 c!
b00000000000000000000000000000000 d!
#40
00!
#41
b11111111111111111111011111111111 %
b00000000000000000000000000010100 '
b00000000000000000000000000011000 (
b00000000000000000000000000000000 )
b1111 *
b00000000000000000000000000 0
b00000000000000000000000000000000 1
b00000 2
b00000 3
b00000 4
b00000000000000000000000000000000 7
b00000000000000000000000000001000 9
b00000000000000000000000000000010 :
b00000000000000000000000000001010 ;
0<
b00000000000000000000000000010000 >
b00000000000000000000000000001100 ?
b00000001001010100101100000100000 @
b0010 A
b00000000000000000101100000100000 B
b00000000000000000000000000010000 C
b00000000000000000000000000000010 D
b01011 E
1F
1I
b00000000000000000000000000000000 R
b00000 S
0T
b000000000000000000000000000001010 Y
b00000 \
b000000 ^
b0000000000000000 _
b01001010100101100000100000 i
b00000000000000000000000000000010 u
b010100 /!
10!
#42
00!
#43
b00000000000000000000000000011000 '
b00000000000000000000000000011100 (
b00000000000000000000000000000000 9
b00000000000000000000000000000000 :
b00000000000000000000000000000000 ;
1<
b00000000000000000000000000010100 >
b00000000000000000000000000010000 ?
b00000000000000000000000000000000 @
b1111 A
b00000000000000000000000000000000 B
b00000000000000000000000000010100 C
b00000000000000000000000000000000 D
b00000 E
b00000000000000000000000000001100 K
b00000000000000000000000000001010 L
b00000000000000000000000000000010 M
b01011 N
1O
b000000000000000000000000000000000 Y
b00000000000000000000000000 i
b001010 .!
b011000 /!
10!
b00000000000000000000000000001010 c!
b00000000000000000000000000000010 d!
#44
00!
